<svg height="38.25" viewBox="0 0 30.75 38.25" width="30.75" xmlns="http://www.w3.org/2000/svg">
    <g id="surface1" transform="translate(0 0.25)">
        <path
            d="M588.593,363.484l-.843.921,3.833,3.514A4.385,4.385,0,0,1,593,371.145v15.3h1.25v-15.3A5.639,5.639,0,0,0,592.426,367Zm0,0"
            data-name="Path 412" fill="#14b795" id="Path_412" stroke="#14b795" stroke-width="1"
            transform="translate(-564 -348.945)" />
        <path
            d="M19.625,0H3.375A3.129,3.129,0,0,0,.25,3.125v31.25A3.129,3.129,0,0,0,3.375,37.5H19V36.382a14.209,14.209,0,0,1,2.395-7.91.625.625,0,0,0-.078-.789l-4.375-4.375a2.027,2.027,0,0,1,.149-3,2.105,2.105,0,0,1,2.8.215l6.169,6.17.884-.884L22.75,21.616V3.125A3.129,3.129,0,0,0,19.625,0ZM21.5,20.366l-.727-.727a3.364,3.364,0,0,0-4.478-.3,3.277,3.277,0,0,0-.237,4.849l4.019,4.019a15.453,15.453,0,0,0-2.323,8.039H3.375A1.875,1.875,0,0,1,1.5,34.375V32.5H17.125V31.25H1.5V5h20Zm0-16.616H1.5V3.125A1.875,1.875,0,0,1,3.375,1.25h16.25A1.875,1.875,0,0,1,21.5,3.125Zm0,0"
            data-name="Path 413" fill="#14b795" id="Path_413" stroke="#14b795" stroke-width="0.5" />
        <path
            d="M64,161.25h2.5A1.25,1.25,0,0,0,67.75,160v-2.5a1.25,1.25,0,0,0-1.25-1.25H64a1.25,1.25,0,0,0-1.25,1.25V160A1.25,1.25,0,0,0,64,161.25Zm0-3.75h2.5V160H64Zm0,0"
            data-name="Path 414" fill="#14b795" id="Path_414" transform="translate(-60 -150)" />
        <path
            d="M220.25,161.25h2.5A1.25,1.25,0,0,0,224,160v-2.5a1.25,1.25,0,0,0-1.25-1.25h-2.5A1.25,1.25,0,0,0,219,157.5V160A1.25,1.25,0,0,0,220.25,161.25Zm0-3.75h2.5V160h-2.5Zm0,0"
            data-name="Path 415" fill="#14b795" id="Path_415" transform="translate(-210 -150)" />
        <path
            d="M376.5,161.25H379a1.25,1.25,0,0,0,1.25-1.25v-2.5a1.25,1.25,0,0,0-1.25-1.25h-2.5a1.25,1.25,0,0,0-1.25,1.25V160A1.25,1.25,0,0,0,376.5,161.25Zm0-3.75H379V160h-2.5Zm0,0"
            data-name="Path 416" fill="#14b795" id="Path_416" transform="translate(-360 -150)" />
        <path
            d="M64,317.5h2.5a1.25,1.25,0,0,0,1.25-1.25v-2.5a1.25,1.25,0,0,0-1.25-1.25H64a1.25,1.25,0,0,0-1.25,1.25v2.5A1.25,1.25,0,0,0,64,317.5Zm0-3.75h2.5v2.5H64Zm0,0"
            data-name="Path 417" fill="#14b795" id="Path_417" transform="translate(-60 -300)" />
        <path
            d="M64,473.75h2.5a1.25,1.25,0,0,0,1.25-1.25V470a1.25,1.25,0,0,0-1.25-1.25H64A1.25,1.25,0,0,0,62.75,470v2.5A1.25,1.25,0,0,0,64,473.75ZM64,470h2.5v2.5H64Zm0,0"
            data-name="Path 418" fill="#14b795" id="Path_418" transform="translate(-60 -450)" />
        <path
            d="M220.25,317.5h2.5a1.25,1.25,0,0,0,1.25-1.25v-2.5a1.25,1.25,0,0,0-1.25-1.25h-2.5a1.25,1.25,0,0,0-1.25,1.25v2.5A1.25,1.25,0,0,0,220.25,317.5Zm0-3.75h2.5v2.5h-2.5Zm0,0"
            data-name="Path 419" fill="#14b795" id="Path_419" transform="translate(-210 -300)" />
        <path
            d="M376.5,317.5H379a1.25,1.25,0,0,0,1.25-1.25v-2.5A1.25,1.25,0,0,0,379,312.5h-2.5a1.25,1.25,0,0,0-1.25,1.25v2.5A1.25,1.25,0,0,0,376.5,317.5Zm0-3.75H379v2.5h-2.5Zm0,0"
            data-name="Path 420" fill="#14b795" id="Path_420" transform="translate(-360 -300)" />
        <path
            d="M220.25,473.75h2.5A1.25,1.25,0,0,0,224,472.5V470a1.25,1.25,0,0,0-1.25-1.25h-2.5A1.25,1.25,0,0,0,219,470v2.5A1.25,1.25,0,0,0,220.25,473.75Zm0-3.75h2.5v2.5h-2.5Zm0,0"
            data-name="Path 421" fill="#14b795" id="Path_421" transform="translate(-210 -450)" />
        <path
            d="M64,630h2.5a1.25,1.25,0,0,0,1.25-1.25v-2.5A1.25,1.25,0,0,0,66.5,625H64a1.25,1.25,0,0,0-1.25,1.25v2.5A1.25,1.25,0,0,0,64,630Zm0-3.75h2.5v2.5H64Zm0,0"
            data-name="Path 422" fill="#14b795" id="Path_422" transform="translate(-60 -600)" />
        <path
            d="M220.25,630h2.5a1.25,1.25,0,0,0,1.25-1.25v-2.5a1.25,1.25,0,0,0-1.25-1.25h-2.5a1.25,1.25,0,0,0-1.25,1.25v2.5A1.25,1.25,0,0,0,220.25,630Zm0-3.75h2.5v2.5h-2.5Zm0,0"
            data-name="Path 423" fill="#14b795" id="Path_423" transform="translate(-210 -600)" />
        <path d="M265.875,843.75h1.25V845h-1.25Zm0,0" data-name="Path 424" fill="#14b795"
            id="Path_424" stroke="#14b795" stroke-width="1" transform="translate(-255 -810)" />
    </g>
</svg>
