<svg height="26.735" viewBox="0 0 24.653 26.735" width="24.653" xmlns="http://www.w3.org/2000/svg">
    <g id="review" transform="translate(0 0.493)">
        <g data-name="Group 3330" id="Group_3330" transform="translate(5.225 15.5)">
            <g data-name="Group 3329" id="Group_3329" transform="translate(0 -1)">
                <path
                    d="M100.438,278.4a.676.676,0,1,0,.676.676A.676.676,0,0,0,100.438,278.4Zm0,.906a.23.23,0,1,1,.23-.23A.23.23,0,0,1,100.438,279.308Z"
                    data-name="Path 10191" fill="#dfac1e" id="Path_10191" stroke="#dfac1e"
                    stroke-width="0.5" transform="translate(-99.762 -279.402)" />
            </g>
        </g>
        <g data-name="Group 3332" id="Group_3332" transform="translate(8.807 19.512)">
            <g data-name="Group 3331" id="Group_3331">
                <path
                    d="M189.927,373.018a.362.362,0,0,0-.344-.25h-2.149l-.664-2.044a.362.362,0,0,0-.688,0l-.664,2.044h-2.149a.362.362,0,0,0-.213.655l1.739,1.263-.664,2.044a.362.362,0,0,0,.557.4l1.739-1.263,1.739,1.263a.362.362,0,0,0,.557-.4l-.664-2.044,1.739-1.263A.362.362,0,0,0,189.927,373.018Zm-2.508,1.237a.362.362,0,0,0-.131.4l.4,1.235-1.051-.763a.365.365,0,0,0-.425,0l-1.051.763.4-1.235a.362.362,0,0,0-.131-.4l-1.051-.763h1.3a.362.362,0,0,0,.344-.25l.4-1.235.4,1.235a.362.362,0,0,0,.344.25h1.3Z"
                    data-name="Path 10192" fill="#dfac1e" id="Path_10192"
                    transform="translate(-182.906 -370.474)" />
                <path
                    d="M12.394,1.027l.656,1.563,2.313.156L13.488,4.121l.688,2.031L12.394,5,10.488,6.152l.656-2.031L9.332,2.746l2.156-.156Z"
                    data-name="Path 10196" fill="#dfac1e" id="Path_10196" />
                <path
                    d="M12.394,1.027l.75,1.125,2.219.594L13.488,4.121l.688,2.031L12.394,5,10.488,6.152l.656-2.031L9.332,2.746l2.156-.156Z"
                    data-name="Path 10197" fill="#dfac1e" id="Path_10197"
                    transform="translate(-9)" />
                <path
                    d="M12.49,1.027l.773,1.149,2.288.606-1.933,1.4.709,2.075L12.49,5.081,10.524,6.262,11.2,4.187l-1.869-1.4,2.223-.16Z"
                    data-name="Path 10198" fill="#dfac1e" id="Path_10198"
                    transform="translate(-18)" />
            </g>
        </g>
        <g data-name="Group 3334" id="Group_3334" transform="translate(17.614 19.512)">
            <g data-name="Group 3333" id="Group_3333">
                <path
                    d="M372.834,373.017a.362.362,0,0,0-.344-.25h-2.149l-.664-2.044a.362.362,0,0,0-.688,0l-.664,2.044h-2.149a.362.362,0,0,0-.213.655l1.739,1.263-.664,2.044a.362.362,0,0,0,.557.4l1.739-1.263,1.739,1.263a.362.362,0,0,0,.557-.4l-.664-2.044,1.739-1.263A.362.362,0,0,0,372.834,373.017Zm-2.508,1.237a.362.362,0,0,0-.131.4l.4,1.235-1.051-.763a.362.362,0,0,0-.425,0l-1.051.763.4-1.235a.362.362,0,0,0-.131-.4l-1.051-.763h1.3a.362.362,0,0,0,.344-.25l.4-1.235.4,1.235a.362.362,0,0,0,.344.25h1.3Z"
                    data-name="Path 10193" fill="#dfac1e" id="Path_10193"
                    transform="translate(-365.813 -370.473)" />
            </g>
        </g>
        <g data-name="Group 3336" id="Group_3336" transform="translate(0 19.512)">
            <g data-name="Group 3335" id="Group_3335">
                <path
                    d="M7.021,373.018a.362.362,0,0,0-.344-.25H4.527l-.664-2.044a.362.362,0,0,0-.688,0l-.664,2.044H.362a.362.362,0,0,0-.213.655l1.739,1.263-.664,2.044a.362.362,0,0,0,.557.4l1.739-1.263,1.739,1.263a.362.362,0,0,0,.557-.4l-.664-2.044,1.739-1.263A.362.362,0,0,0,7.021,373.018Zm-2.508,1.237a.362.362,0,0,0-.131.4l.4,1.235-1.051-.763a.365.365,0,0,0-.425,0l-1.051.763.4-1.235a.362.362,0,0,0-.131-.4l-1.051-.763h1.3a.362.362,0,0,0,.344-.25l.4-1.235.4,1.235a.362.362,0,0,0,.344.25h1.3Z"
                    data-name="Path 10194" fill="#dfac1e" id="Path_10194"
                    transform="translate(0 -370.474)" />
            </g>
        </g>
        <g data-name="Group 3338" id="Group_3338" transform="translate(3.087 0.758)">
            <g data-name="Group 3337" id="Group_3337">
                <path
                    d="M82.762,10.779a1.639,1.639,0,0,0-1.026-2.917h-5.82a6.643,6.643,0,0,0,.509-1.831,4.534,4.534,0,0,0-.542-3.494,1.931,1.931,0,0,0-1.316-.773.771.771,0,0,0-.855.739,13.731,13.731,0,0,1-.671,3.315A8.076,8.076,0,0,1,69.284,9.03a1.336,1.336,0,0,0-.874-.324H65.468a1.344,1.344,0,0,0-1.342,1.342V17.4a1.344,1.344,0,0,0,1.342,1.342H68.41a1.339,1.339,0,0,0,1-.446,3.426,3.426,0,0,0,1.849.51h9.456a1.639,1.639,0,0,0,1.231-2.722,1.638,1.638,0,0,0,.511-2.556,1.639,1.639,0,0,0,.307-2.751ZM68.41,18.02H65.468a.619.619,0,0,1-.619-.619V10.047a.619.619,0,0,1,.619-.619H68.41a.616.616,0,0,1,.441.186v8.069a.36.36,0,0,0,.023.126A.617.617,0,0,1,68.41,18.02Zm11.806-6.88h1.52a.916.916,0,0,1,0,1.832h-1.52a.362.362,0,1,0,0,.724h1.009a.916.916,0,0,1,0,1.832H79.938a.362.362,0,0,0,0,.724h.775a.916.916,0,0,1,0,1.832H71.258a2.677,2.677,0,0,1-1.528-.438,1.343,1.343,0,0,0,.023-.244V10.047a1.337,1.337,0,0,0-.063-.406,8.591,8.591,0,0,0,4-3.5,14.766,14.766,0,0,0,.745-3.584c0-.011,0-.023,0-.035a.04.04,0,0,1,.014-.031.036.036,0,0,1,.03-.009,1.217,1.217,0,0,1,.829.5,3.874,3.874,0,0,1,.4,2.951,4.642,4.642,0,0,1-.694,2.066.365.365,0,0,0,.28.591h6.441a.916.916,0,0,1,0,1.832h-1.52a.362.362,0,1,0,0,.724Z"
                    data-name="Path 10195" fill="#dfac1e" id="Path_10195" stroke="#dfac1e"
                    stroke-width="0.5" transform="translate(-64.126 -2.758)" />
            </g>
        </g>
    </g>
</svg>
