<svg height="15.738" viewBox="0 0 15.738 15.738" width="15.738" xmlns="http://www.w3.org/2000/svg">
    <path
        d="M15.559,14.693l-3.841-3.841a6.633,6.633,0,1,0-.865.865l3.841,3.841a.612.612,0,1,0,.865-.865ZM1.224,6.624a5.4,5.4,0,1,1,5.4,5.4A5.406,5.406,0,0,1,1.224,6.624Z"
        fill="#002b2a" id="search" opacity="0.34" />
</svg>
