<svg height="23.815" viewBox="0 0 25.303 23.815" width="25.303" xmlns="http://www.w3.org/2000/svg">
    <path
        d="M3.016,20.011h-.07A3,3,0,0,1,2,14.189V5.828a3,3,0,1,1,2,0v5.74a3.909,3.909,0,0,1,2-.56h4a2,2,0,0,0,1.85-1.23,2.973,2.973,0,1,1,2.06.07A4,4,0,0,1,10,13.009H6a1.994,1.994,0,0,0-1.84,1.229,3,3,0,0,1-1.145,5.773Zm-.015-4a1,1,0,1,0,1,1A1,1,0,0,0,3,16.008Zm10-10a1,1,0,1,0,1,1A1,1,0,0,0,13,6.008Zm-10-4a1,1,0,1,0,1,1A1,1,0,0,0,3,2.009Z"
        fill="#0d6361" id="code-branch" transform="translate(7.973 23.815) rotate(-120)" />
</svg>
