<svg xmlns="http://www.w3.org/2000/svg" width="15" height="10.714" viewBox="0 0 15 10.714">
  <path id="Vector" d="M13.929,0H1.071A1.071,1.071,0,0,0,0,1.071V9.643a1.071,1.071,0,0,0,1.071,1.071H13.929A1.071,1.071,0,0,0,15,9.643V1.071A1.071,1.071,0,0,0,13.929,0ZM12.75,1.071,7.5,4.7,2.25,1.071ZM1.071,9.643V1.559L7.195,5.8a.536.536,0,0,0,.611,0l6.123-4.237V9.643Z" fill="#904e95"/>
</svg>
