<svg xmlns="http://www.w3.org/2000/svg" width="26.454" height="26.554" viewBox="0 0 26.454 26.554">
  <g id="Group_112" data-name="Group 112" transform="translate(-150 -948)">
    <g id="clarity_home-line" transform="translate(150 948)">
      <path id="Path_2164" data-name="Path 2164" d="M28.323,14.687,15.876,2.241a.83.83,0,0,0-1.17,0L2.259,14.687a.83.83,0,0,0,1.17,1.17L15.287,4,27.144,15.866a.83.83,0,0,0,1.17-1.17Z" transform="translate(-2.06 -1.999)" fill="#fff"/>
      <path id="Path_2165" data-name="Path 2165" d="M24.255,29.576H20.106v-8.3h-8.3v8.3H7.66V17.959L6,19.619v9.957a1.66,1.66,0,0,0,1.66,1.66h5.809v-8.3h4.979v8.3h5.809a1.66,1.66,0,0,0,1.66-1.66V19.42l-1.66-1.66Z" transform="translate(-2.73 -4.682)" fill="#fff"/>
    </g>
  </g>
</svg>
