<svg xmlns="http://www.w3.org/2000/svg" width="12.857" height="15" viewBox="0 0 12.857 15">
  <path id="ri_lock-password-line" d="M13.714,6h1.429a.714.714,0,0,1,.714.714v8.571a.714.714,0,0,1-.714.714H3.714A.714.714,0,0,1,3,15.286V6.714A.714.714,0,0,1,3.714,6H5.143V5.286a4.286,4.286,0,0,1,8.571,0ZM4.429,7.429v7.143h10V7.429Zm4.286,2.857h1.429v1.429H8.714Zm-2.857,0H7.286v1.429H5.857Zm5.714,0H13v1.429H11.571ZM12.286,6V5.286a2.857,2.857,0,1,0-5.714,0V6Z" transform="translate(-3 -1)" fill="#904e95"/>
</svg>
