<svg id="Group_2" data-name="Group 2" xmlns="http://www.w3.org/2000/svg" xmlns:xlink="http://www.w3.org/1999/xlink" width="91.564" height="30.331" viewBox="0 0 91.564 30.331">
  <defs>
    <clipPath id="clip-path">
      <rect id="Rectangle_1" data-name="Rectangle 1" width="91.564" height="30.331" fill="none"/>
    </clipPath>
  </defs>
  <g id="Group_1" data-name="Group 1" transform="translate(0 0)" clip-path="url(#clip-path)">
    <path id="Path_2" data-name="Path 2" d="M12.018,25.435a10.212,10.212,0,0,1-2.628.306,3.6,3.6,0,0,1-3.055-1.18,6.614,6.614,0,0,1-.9-3.933V11.319h8.356V6.905H5.436V0L0,.874v19.8a18.237,18.237,0,0,0,.4,4.042A7.427,7.427,0,0,0,1.8,27.729a6.187,6.187,0,0,0,2.674,1.9,11.658,11.658,0,0,0,4.2.656,13.774,13.774,0,0,0,3.594-.416,20.721,20.721,0,0,0,2.471-.808l-.9-4.2a18.034,18.034,0,0,1-1.82.568" transform="translate(0 0)" fill="#fff"/>
    <path id="Path_3" data-name="Path 3" d="M165.087,32.608a18.013,18.013,0,0,0-.47-4.259A8.12,8.12,0,0,0,163,25.028a7.53,7.53,0,0,0-3.078-2.143,13.135,13.135,0,0,0-4.807-.764,37.544,37.544,0,0,0-9.66,1.225v14.89a4.012,4.012,0,0,0-2.776,3.785,4.061,4.061,0,0,0,4.118,4.006,4.2,4.2,0,0,0,2.117-.567h0a4.209,4.209,0,0,0,.388-.258,4.118,4.118,0,0,0,.673-.633,3.985,3.985,0,0,0,.511-.767,3.853,3.853,0,0,0,.4-1.344,3.606,3.606,0,0,0,.024-.437,3.544,3.544,0,0,0-.024-.434V27.014c.36-.057.913-.13,1.661-.217a18.778,18.778,0,0,1,2.158-.13,6.609,6.609,0,0,1,2.358.37,3.236,3.236,0,0,1,1.53,1.178,5.547,5.547,0,0,1,.806,2.1,16.859,16.859,0,0,1,.247,3.124v4.789a4.016,4.016,0,0,0-2.8,3.792,4.063,4.063,0,0,0,4.118,4.006,4.183,4.183,0,0,0,2.1-.567h.012l.006-.011a3.98,3.98,0,0,0,2-3.428c0-.009,0-.018,0-.027Z" transform="translate(-100.077 -15.696)" fill="#fff"/>
    <path id="Path_4" data-name="Path 4" d="M254.12,24.747a9.822,9.822,0,0,0-7.57-2.928,11.118,11.118,0,0,0-4.043.765,10.154,10.154,0,0,0-3.5,2.272,11.081,11.081,0,0,0-2.449,3.78,14.011,14.011,0,0,0-.921,5.288,14.966,14.966,0,0,0,.719,4.742,9.787,9.787,0,0,0,5.976,6.25,14.78,14.78,0,0,0,5.392.9,21.322,21.322,0,0,0,2.381-.131q1.169-.132,2.179-.328a17.688,17.688,0,0,0,1.8-.437,8.763,8.763,0,0,0,1.235-.459l-.719-4.326a15.125,15.125,0,0,1-2.583.743,17.324,17.324,0,0,1-3.617.35,7.742,7.742,0,0,1-5.144-1.508,5.956,5.956,0,0,1-2-4.261h15.5q.044-.436.067-.983c.015-.364.023-.692.023-.983q0-5.811-2.719-8.741m-12.826,6.818a9.028,9.028,0,0,1,.494-1.967,5.463,5.463,0,0,1,1.011-1.7,4.865,4.865,0,0,1,3.8-1.661,4.843,4.843,0,0,1,2.089.415,4.354,4.354,0,0,1,1.483,1.136,4.979,4.979,0,0,1,.921,1.7,6.8,6.8,0,0,1,.314,2.076Z" transform="translate(-165.275 -15.482)" fill="#fff"/>
    <path id="Path_5" data-name="Path 5" d="M67.164,23.764A11.7,11.7,0,1,0,79.183,35.455,11.859,11.859,0,0,0,67.164,23.764m0,18.236a6.547,6.547,0,1,1,6.728-6.545A6.639,6.639,0,0,1,67.164,42" transform="translate(-38.679 -16.862)" fill="#fff"/>
  </g>
</svg>
