<svg xmlns="http://www.w3.org/2000/svg" width="11.734" height="12.421" viewBox="0 0 11.734 12.421">
  <path id="Vector" d="M12.272,10.136A5.893,5.893,0,0,0,9.149,7.014L9.13,7.006a3.869,3.869,0,1,0-4.531,0l-.019.008A5.865,5.865,0,0,0,1,12.293a.125.125,0,0,0,.125.128h.936a.125.125,0,0,0,.125-.122,4.683,4.683,0,0,1,9.362,0,.124.124,0,0,0,.125.122h.936a.125.125,0,0,0,.125-.128,5.815,5.815,0,0,0-.46-2.156ZM6.865,6.554a2.685,2.685,0,1,1,1.9-.786A2.667,2.667,0,0,1,6.865,6.554Z" transform="translate(-0.997)" fill="#904e95"/>
</svg>
